<svg width="35" height="24" viewBox="0 0 35 24" fill="none" xmlns="http://www.w3.org/2000/svg">
<path d="M33.5417 13.3847H1.45833C0.653331 13.3847 0 12.7644 0 12.0001C0 11.2358 0.653331 10.6155 1.45833 10.6155H33.5417C34.3467 10.6155 35 11.2358 35 12.0001C35 12.7644 34.3467 13.3847 33.5417 13.3847Z" fill="#ECDEED"/>
<path d="M33.5417 2.76923H1.45833C0.653331 2.76923 0 2.14893 0 1.38462C0 0.620306 0.653331 0 1.45833 0H33.5417C34.3467 0 35 0.620306 35 1.38462C35 2.14893 34.3467 2.76923 33.5417 2.76923Z" fill="#ECDEED"/>
<path d="M33.5417 23.9999H1.45833C0.653331 23.9999 0 23.3796 0 22.6153C0 21.851 0.653331 21.2307 1.45833 21.2307H33.5417C34.3467 21.2307 35 21.851 35 22.6153C35 23.3796 34.3467 23.9999 33.5417 23.9999Z" fill="#ECDEED"/>
</svg>
