<svg width="18" height="20" viewBox="0 0 18 20" fill="none" xmlns="http://www.w3.org/2000/svg">
<path d="M15.1617 9.45124L5.92649 0.216026C5.62076 -0.0792478 5.13356 -0.0707702 4.83829 0.234966C4.55023 0.533216 4.55023 1.00602 4.83829 1.30423L13.5294 9.99534L4.83829 18.6864C4.53783 18.987 4.53783 19.4741 4.83829 19.7747C5.13884 20.0751 5.62599 20.0751 5.92649 19.7747L15.1617 10.5394C15.4622 10.2389 15.4622 9.75174 15.1617 9.45124Z" fill="#ECDEED"/>
</svg>
